tb_cnn_accelerator.vcd
$date
	Sun Mar 15 22:20:28 2026
$end
$version
	Icarus Verilog
$end
$timescale
	1ps
$end
$scope module tb_cnn_accelerator $end
$var wire 1 ! done $end
$var wire 8 " feature_out [7:0] $end
$var wire 1 # feature_valid $end
$var integer 32 $ acc_sw [31:0] $end
$var integer 32 % cap_idx [31:0] $end
$var reg 1 & clk $end
$var integer 32 ' fail_cnt [31:0] $end
$var integer 32 ( i [31:0] $end
$var integer 32 ) mismatch [31:0] $end
$var integer 32 * pass_cnt [31:0] $end
$var reg 8 + pixel_in [7:0] $end
$var reg 1 , pixel_valid $end
$var reg 1 - rst_n $end
$var reg 1 . start $end
$var reg 4 / weight_wr_addr [3:0] $end
$var reg 8 0 weight_wr_data [7:0] $end
$var reg 1 1 weight_wr_en $end
$var integer 32 2 wi [31:0] $end
$scope module dut $end
$var wire 32 3 acc_result [31:0] $end
$var wire 1 4 acc_valid $end
$var wire 1 5 clk $end
$var wire 1 6 ctrl_result_valid $end
$var wire 1 ! done $end
$var wire 8 7 feature_out [7:0] $end
$var wire 1 # feature_valid $end
$var wire 1 8 mac_valid $end
$var wire 1 9 pipe_en $end
$var wire 1 : pipe_en_fsm $end
$var wire 8 ; pixel_in [7:0] $end
$var wire 1 < pixel_valid $end
$var wire 144 = products [143:0] $end
$var wire 16 > row_out_flat [15:0] $end
$var wire 1 ? rst_n $end
$var wire 1 @ start $end
$var wire 72 A weight_flat [71:0] $end
$var wire 1 B weight_loaded $end
$var wire 4 C weight_wr_addr [3:0] $end
$var wire 8 D weight_wr_data [7:0] $end
$var wire 1 E weight_wr_en $end
$var wire 72 F window_flat [71:0] $end
$var wire 1 G window_valid $end
$scope module u_ctrl $end
$var wire 1 5 clk $end
$var wire 1 H in_valid_region $end
$var wire 1 < pixel_valid_in $end
$var wire 1 ? rst_n $end
$var wire 1 @ start $end
$var wire 1 B weight_loaded $end
$var reg 3 I col_cnt [2:0] $end
$var reg 1 J done_out $end
$var reg 2 K next_state [1:0] $end
$var reg 6 L out_cnt [5:0] $end
$var reg 1 M pipe_en $end
$var reg 7 N pixel_cnt [6:0] $end
$var reg 1 O result_valid $end
$var reg 3 P row_cnt [2:0] $end
$var reg 2 Q state [1:0] $end
$upscope $end
$scope module u_weights $end
$var wire 1 5 clk $end
$var wire 1 ? rst_n $end
$var wire 72 R weight_flat [71:0] $end
$var wire 1 B weight_loaded $end
$var wire 4 S weight_wr_addr [3:0] $end
$var wire 8 T weight_wr_data [7:0] $end
$var wire 1 E weight_wr_en $end
$var integer 32 U i [31:0] $end
$scope begin gen_wflat[0] $end
$upscope $end
$scope begin gen_wflat[1] $end
$upscope $end
$scope begin gen_wflat[2] $end
$upscope $end
$scope begin gen_wflat[3] $end
$upscope $end
$scope begin gen_wflat[4] $end
$upscope $end
$scope begin gen_wflat[5] $end
$upscope $end
$scope begin gen_wflat[6] $end
$upscope $end
$scope begin gen_wflat[7] $end
$upscope $end
$scope begin gen_wflat[8] $end
$upscope $end
$upscope $end
$scope module u_line_buf $end
$var wire 1 5 clk $end
$var wire 8 V pixel_in [7:0] $end
$var wire 1 W pixel_valid $end
$var wire 16 X row_out_flat [15:0] $end
$var wire 1 ? rst_n $end
$var integer 32 Y c [31:0] $end
$var reg 3 Z col_idx [2:0] $end
$upscope $end
$scope module u_win_gen $end
$var wire 1 5 clk $end
$var wire 8 [ mid_tap [7:0] $end
$var wire 8 \ pixel_in [7:0] $end
$var wire 1 ] pixel_valid $end
$var wire 16 ^ row_out_flat [15:0] $end
$var wire 1 ? rst_n $end
$var wire 8 _ top_tap [7:0] $end
$var wire 72 ` window_flat [71:0] $end
$var reg 3 a col_cnt [2:0] $end
$var integer 32 b i [31:0] $end
$var reg 3 c row_cnt [2:0] $end
$var reg 1 d window_valid $end
$upscope $end
$scope module u_mac_arr $end
$var wire 1 5 clk $end
$var wire 1 G enable $end
$var wire 72 e pixel_flat [71:0] $end
$var wire 144 f products [143:0] $end
$var wire 1 ? rst_n $end
$var wire 72 g weight_flat [71:0] $end
$var reg 1 h valid_out $end
$scope begin gen_mac[0] $end
$scope module u_mac $end
$var wire 1 5 clk $end
$var wire 8 i data_in [7:0] $end
$var wire 1 G enable $end
$var wire 16 j product_wire [15:0] $end
$var wire 16 k raw_product [15:0] $end
$var wire 1 ? rst_n $end
$var wire 8 l weight_in [7:0] $end
$var reg 16 m product_out [15:0] $end
$scope begin gen_reg $end
$upscope $end
$upscope $end
$upscope $end
$scope begin gen_mac[1] $end
$scope module u_mac $end
$var wire 1 5 clk $end
$var wire 8 n data_in [7:0] $end
$var wire 1 G enable $end
$var wire 16 o product_wire [15:0] $end
$var wire 16 p raw_product [15:0] $end
$var wire 1 ? rst_n $end
$var wire 8 q weight_in [7:0] $end
$var reg 16 r product_out [15:0] $end
$scope begin gen_reg $end
$upscope $end
$upscope $end
$upscope $end
$scope begin gen_mac[2] $end
$scope module u_mac $end
$var wire 1 5 clk $end
$var wire 8 s data_in [7:0] $end
$var wire 1 G enable $end
$var wire 16 t product_wire [15:0] $end
$var wire 16 u raw_product [15:0] $end
$var wire 1 ? rst_n $end
$var wire 8 v weight_in [7:0] $end
$var reg 16 w product_out [15:0] $end
$scope begin gen_reg $end
$upscope $end
$upscope $end
$upscope $end
$scope begin gen_mac[3] $end
$scope module u_mac $end
$var wire 1 5 clk $end
$var wire 8 x data_in [7:0] $end
$var wire 1 G enable $end
$var wire 16 y product_wire [15:0] $end
$var wire 16 z raw_product [15:0] $end
$var wire 1 ? rst_n $end
$var wire 8 { weight_in [7:0] $end
$var reg 16 | product_out [15:0] $end
$scope begin gen_reg $end
$upscope $end
$upscope $end
$upscope $end
$scope begin gen_mac[4] $end
$scope module u_mac $end
$var wire 1 5 clk $end
$var wire 8 } data_in [7:0] $end
$var wire 1 G enable $end
$var wire 16 ~ product_wire [15:0] $end
$var wire 16 !" raw_product [15:0] $end
$var wire 1 ? rst_n $end
$var wire 8 "" weight_in [7:0] $end
$var reg 16 #" product_out [15:0] $end
$scope begin gen_reg $end
$upscope $end
$upscope $end
$upscope $end
$scope begin gen_mac[5] $end
$scope module u_mac $end
$var wire 1 5 clk $end
$var wire 8 $" data_in [7:0] $end
$var wire 1 G enable $end
$var wire 16 %" product_wire [15:0] $end
$var wire 16 &" raw_product [15:0] $end
$var wire 1 ? rst_n $end
$var wire 8 '" weight_in [7:0] $end
$var reg 16 (" product_out [15:0] $end
$scope begin gen_reg $end
$upscope $end
$upscope $end
$upscope $end
$scope begin gen_mac[6] $end
$scope module u_mac $end
$var wire 1 5 clk $end
$var wire 8 )" data_in [7:0] $end
$var wire 1 G enable $end
$var wire 16 *" product_wire [15:0] $end
$var wire 16 +" raw_product [15:0] $end
$var wire 1 ? rst_n $end
$var wire 8 ," weight_in [7:0] $end
$var reg 16 -" product_out [15:0] $end
$scope begin gen_reg $end
$upscope $end
$upscope $end
$upscope $end
$scope begin gen_mac[7] $end
$scope module u_mac $end
$var wire 1 5 clk $end
$var wire 8 ." data_in [7:0] $end
$var wire 1 G enable $end
$var wire 16 /" product_wire [15:0] $end
$var wire 16 0" raw_product [15:0] $end
$var wire 1 ? rst_n $end
$var wire 8 1" weight_in [7:0] $end
$var reg 16 2" product_out [15:0] $end
$scope begin gen_reg $end
$upscope $end
$upscope $end
$upscope $end
$scope begin gen_mac[8] $end
$scope module u_mac $end
$var wire 1 5 clk $end
$var wire 8 3" data_in [7:0] $end
$var wire 1 G enable $end
$var wire 16 4" product_wire [15:0] $end
$var wire 16 5" raw_product [15:0] $end
$var wire 1 ? rst_n $end
$var wire 8 6" weight_in [7:0] $end
$var reg 16 7" product_out [15:0] $end
$scope begin gen_reg $end
$upscope $end
$upscope $end
$upscope $end
$upscope $end
$scope module u_accum $end
$var wire 1 5 clk $end
$var wire 144 8" products [143:0] $end
$var wire 1 ? rst_n $end
$var wire 1 8 valid_in $end
$var integer 32 9" i [31:0] $end
$var reg 32 :" result [31:0] $end
$var reg 32 ;" sum_comb [31:0] $end
$var reg 1 <" valid_out $end
$scope begin gen_pad[0] $end
$upscope $end
$scope begin gen_pad[1] $end
$upscope $end
$scope begin gen_pad[2] $end
$upscope $end
$scope begin gen_pad[3] $end
$upscope $end
$scope begin gen_pad[4] $end
$upscope $end
$scope begin gen_pad[5] $end
$upscope $end
$scope begin gen_pad[6] $end
$upscope $end
$scope begin gen_pad[7] $end
$upscope $end
$scope begin gen_pad[8] $end
$upscope $end
$upscope $end
$scope module u_relu $end
$var wire 32 =" acc_in [31:0] $end
$var wire 1 5 clk $end
$var wire 32 >" relu_val [31:0] $end
$var wire 1 ? rst_n $end
$var wire 8 ?" sat_val [7:0] $end
$var wire 1 4 valid_in $end
$var reg 8 @" feature [7:0] $end
$var reg 1 A" valid_out $end
$upscope $end
$upscope $end
$scope task do_check $end
$var integer 32 B" ci [31:0] $end
$upscope $end
$scope task do_compute_expected $end
$var integer 32 C" cc [31:0] $end
$var integer 32 D" kc [31:0] $end
$var integer 32 E" kr [31:0] $end
$var integer 32 F" rr [31:0] $end
$upscope $end
$scope task do_load_weights $end
$upscope $end
$scope task do_reset $end
$upscope $end
$scope task do_stream $end
$upscope $end
$scope task print_captured $end
$var integer 32 G" pc [31:0] $end
$var integer 32 H" pr [31:0] $end
$upscope $end
$scope task print_expected $end
$var integer 32 I" pc [31:0] $end
$var integer 32 J" pr [31:0] $end
$upscope $end
$scope task print_image $end
$var integer 32 K" pc [31:0] $end
$var integer 32 L" pr [31:0] $end
$upscope $end
$upscope $end
$enddefinitions $end
#0
$dumpvars
b1000 L"
b1000 K"
bx J"
bx I"
bx H"
bx G"
b110 F"
b11 E"
b11 D"
b110 C"
bx B"
xA"
bx @"
bx ?"
bx >"
bx ="
x<"
bx ;"
bx :"
b1001 9"
bx 8"
bx 7"
b0 6"
b0 5"
b0 4"
b0 3"
bx 2"
b0 1"
b0 0"
b0 /"
b0 ."
bx -"
b0 ,"
b0 +"
b0 *"
b0 )"
bx ("
b0 '"
b0 &"
b0 %"
b0 $"
bx #"
b0 ""
b0 !"
b0 ~
b0 }
bx |
b0 {
b0 z
b0 y
b0 x
bx w
b0 v
b0 u
b0 t
b0 s
bx r
b0 q
b0 p
b0 o
b0 n
bx m
b0 l
b0 k
b0 j
b0 i
xh
b0 g
bx f
b0 e
0d
b0 c
b11 b
b0 a
b0 `
b0 _
b0 ^
0]
b0 \
b0 [
b0 Z
b1000 Y
b0 X
0W
b0 V
b1001 U
b0 T
b0 S
b0 R
bx Q
bx P
xO
bx N
xM
bx L
bx K
xJ
bx I
xH
0G
b0 F
0E
b0 D
b0 C
0B
b0 A
0@
0?
b0 >
bx =
0<
b0 ;
x:
19
x8
bx 7
x6
05
x4
bx 3
bx 2
01
b0 0
b0 /
0.
0-
0,
b0 +
b0 *
bx )
b1000000 (
b0 '
0&
b0 %
b0 $
x#
bx "
x!
$end
#5000
b1001 9"
b0 ;"
b0 ?"
0H
b0 K
b0 >"
b0 Q
0O
06
0J
0!
0M
0:
b0 P
b0 I
b0 L
b0 N
b0 m
b0 r
b0 w
b0 |
b0 #"
b0 ("
b0 -"
b0 2"
b0 7"
b0 =
b0 f
b0 8"
0h
08
0<"
04
b0 :"
b0 3
b0 ="
0A"
0#
b0 @"
b0 "
b0 7
b11 b
b1000 Y
b1001 U
1&
15
#10000
0&
05
#15000
b1001 U
b1000 Y
b11 b
1&
15
#20000
0&
05
#25000
b11 b
b1000 Y
b1001 U
1&
15
#30000
0&
05
#35000
b1001 U
b1000 Y
b11 b
1&
15
#40000
0&
05
#45000
b11 b
b1000 Y
b1001 U
1&
15
#50000
0&
05
#55000
1-
1?
b1001 U
b1000 Y
b11 b
1&
15
#60000
0&
05
#65000
b1 K
1.
1@
1&
15
#70000
0&
05
#75000
b1 Q
b10 K
b11111111 0
b11111111 D
b11111111 T
11
1E
1B
b0 2
0.
0@
1&
15
#80000
0&
05
#85000
b11111111 l
b10 Q
b11111111 A
b11111111 R
b11111111 g
b1 /
b1 C
b1 S
b1 2
1&
15
#90000
0&
05
#95000
b11111111 q
1M
1:
b1111111111111111 A
b1111111111111111 R
b1111111111111111 g
b10 /
b10 C
b10 S
b10 2
1&
15
#100000
0&
05
#105000
b11111111 v
b111111111111111111111111 A
b111111111111111111111111 R
b111111111111111111111111 g
b11 /
b11 C
b11 S
b11 2
1&
15
#110000
0&
05
#115000
b11111111 {
b11111111111111111111111111111111 A
b11111111111111111111111111111111 R
b11111111111111111111111111111111 g
b1000 0
b1000 D
b1000 T
b100 /
b100 C
b100 S
b100 2
1&
15
#120000
0&
05
#125000
b1000 ""
b100011111111111111111111111111111111 A
b100011111111111111111111111111111111 R
b100011111111111111111111111111111111 g
b11111111 0
b11111111 D
b11111111 T
b101 /
b101 C
b101 S
b101 2
1&
15
#130000
0&
05
#135000
b11111111 '"
b111111110000100011111111111111111111111111111111 A
b111111110000100011111111111111111111111111111111 R
b111111110000100011111111111111111111111111111111 g
b110 /
b110 C
b110 S
b110 2
1&
15
#140000
0&
05
#145000
b11111111 ,"
b11111111111111110000100011111111111111111111111111111111 A
b11111111111111110000100011111111111111111111111111111111 R
b11111111111111110000100011111111111111111111111111111111 g
b111 /
b111 C
b111 S
b111 2
1&
15
#150000
0&
05
#155000
b11111111 1"
b1111111111111111111111110000100011111111111111111111111111111111 A
b1111111111111111111111110000100011111111111111111111111111111111 R
b1111111111111111111111110000100011111111111111111111111111111111 g
b1000 /
b1000 C
b1000 S
b1000 2
1&
15
#160000
0&
05
#165000
b11111111 6"
b111111111111111111111111111111110000100011111111111111111111111111111111 A
b111111111111111111111111111111110000100011111111111111111111111111111111 R
b111111111111111111111111111111110000100011111111111111111111111111111111 g
01
0E
0B
b1001 2
1&
15
#170000
0&
05
#175000
1&
15
#180000
0&
05
#185000
1&
15
#190000
0&
05
#195000
1&
15
#200000
0&
05
#205000
1W
1]
1,
1<
b10011011 +
b10011011 ;
b10011011 V
b10011011 \
b0 (
1&
15
#210000
0&
05
#215000
b10011011 3"
b1100101 4"
b1100101 5"
b1 I
b1 N
b1 Z
b0 >
b0 X
b0 ^
b100110110000000000000000000000000000000000000000000000000000000000000000 F
b100110110000000000000000000000000000000000000000000000000000000000000000 `
b100110110000000000000000000000000000000000000000000000000000000000000000 e
b1 a
b1101011 +
b1101011 ;
b1101011 V
b1101011 \
b1 (
1&
15
#220000
0&
05
#225000
b1101011 3"
b10010101 4"
b1111111110010101 5"
b10011011 ."
b1100101 /"
b1100101 0"
b10 I
b10 N
b11010111001101100000000000000000000000000000000000000000000000000000000 F
b11010111001101100000000000000000000000000000000000000000000000000000000 `
b11010111001101100000000000000000000000000000000000000000000000000000000 e
b10 a
b10 Z
b0 >
b0 X
b0 ^
b10000001 +
b10000001 ;
b10000001 V
b10000001 \
b10 (
1&
15
#230000
0&
05
#235000
b10000001 3"
b1111111 4"
b1111111 5"
b1101011 ."
b10010101 /"
b1111111110010101 0"
b10011011 )"
b1100101 *"
b1100101 +"
b11 I
b11 N
b11 Z
b0 >
b0 X
b0 ^
b100000010110101110011011000000000000000000000000000000000000000000000000 F
b100000010110101110011011000000000000000000000000000000000000000000000000 `
b100000010110101110011011000000000000000000000000000000000000000000000000 e
b11 a
b10001010 +
b10001010 ;
b10001010 V
b10001010 \
b11 (
1&
15
#240000
0&
05
#245000
b10001010 3"
b1110110 4"
b1110110 5"
b10000001 ."
b1111111 /"
b1111111 0"
b1101011 )"
b10010101 *"
b1111111110010101 +"
b100 I
b100 N
b100010101000000101101011000000000000000000000000000000000000000000000000 F
b100010101000000101101011000000000000000000000000000000000000000000000000 `
b100010101000000101101011000000000000000000000000000000000000000000000000 e
b100 a
b100 Z
b0 >
b0 X
b0 ^
b1111111 +
b1111111 ;
b1111111 V
b1111111 \
b100 (
1&
15
#250000
0&
05
#255000
b1111111 3"
b10000001 4"
b1111111110000001 5"
b10001010 ."
b1110110 /"
b1110110 0"
b10000001 )"
b1111111 *"
b1111111 +"
b101 I
b101 N
b101 Z
b0 >
b0 X
b0 ^
b11111111000101010000001000000000000000000000000000000000000000000000000 F
b11111111000101010000001000000000000000000000000000000000000000000000000 `
b11111111000101010000001000000000000000000000000000000000000000000000000 e
b101 a
b10010001 +
b10010001 ;
b10010001 V
b10010001 \
b101 (
1&
15
#260000
0&
05
#265000
b10010001 3"
b1101111 4"
b1101111 5"
b1111111 ."
b10000001 /"
b1111111110000001 0"
b10001010 )"
b1110110 *"
b1110110 +"
b110 I
b110 N
b100100010111111110001010000000000000000000000000000000000000000000000000 F
b100100010111111110001010000000000000000000000000000000000000000000000000 `
b100100010111111110001010000000000000000000000000000000000000000000000000 e
b110 a
b110 Z
b0 >
b0 X
b0 ^
b10100001 +
b10100001 ;
b10100001 V
b10100001 \
b110 (
1&
15
#270000
0&
05
#275000
b10100001 3"
b1011111 4"
b1011111 5"
b10010001 ."
b1101111 /"
b1101111 0"
b1111111 )"
b10000001 *"
b1111111110000001 +"
b111 I
b111 N
b111 Z
b0 >
b0 X
b0 ^
b101000011001000101111111000000000000000000000000000000000000000000000000 F
b101000011001000101111111000000000000000000000000000000000000000000000000 `
b101000011001000101111111000000000000000000000000000000000000000000000000 e
b111 a
b1011001 +
b1011001 ;
b1011001 V
b1011001 \
b111 (
1&
15
#280000
0&
05
#285000
b1011001 3"
b10100111 4"
b1111111110100111 5"
b10100001 ."
b1011111 /"
b1011111 0"
b10010001 )"
b1101111 *"
b1101111 +"
b10011011 [
b1 P
b0 I
b1000 N
b10110011010000110010001000000000000000000000000000000000000000000000000 F
b10110011010000110010001000000000000000000000000000000000000000000000000 `
b10110011010000110010001000000000000000000000000000000000000000000000000 e
b1 c
b0 a
b0 Z
b10011011 >
b10011011 X
b10011011 ^
b10000010 +
b10000010 ;
b10000010 V
b10000010 \
b1000 (
1&
15
#290000
0&
05
#295000
b1101011 [
b10011011 $"
b1100101 %"
b1100101 &"
b10000010 3"
b1111110 4"
b1111110 5"
b1011001 ."
b10100111 /"
b1111111110100111 0"
b10100001 )"
b1011111 *"
b1011111 +"
b1 I
b1001 N
b1 Z
b1101011 >
b1101011 X
b1101011 ^
b100000100101100110100001100110110000000000000000000000000000000000000000 F
b100000100101100110100001100110110000000000000000000000000000000000000000 `
b100000100101100110100001100110110000000000000000000000000000000000000000 e
b1 a
b1100110 +
b1100110 ;
b1100110 V
b1100110 \
b1001 (
1&
15
#300000
0&
05
#305000
b1101011 $"
b10010101 %"
b1111111110010101 &"
b10011011 }
b11011000 ~
b1111110011011000 !"
b1100110 3"
b10011010 4"
b1111111110011010 5"
b10000010 ."
b1111110 /"
b1111110 0"
b1011001 )"
b10100111 *"
b1111111110100111 +"
b10000001 [
b10 I
b1010 N
b11001101000001001011001011010111001101100000000000000000000000000000000 F
b11001101000001001011001011010111001101100000000000000000000000000000000 `
b11001101000001001011001011010111001101100000000000000000000000000000000 e
b10 a
b10 Z
b10000001 >
b10000001 X
b10000001 ^
b1111001 +
b1111001 ;
b1111001 V
b1111001 \
b1010 (
1&
15
#310000
0&
05
#315000
b10001010 [
b10000001 $"
b1111111 %"
b1111111 &"
b1101011 }
b1011000 ~
b1101011000 !"
b10011011 x
b1100101 y
b1100101 z
b1111001 3"
b10000111 4"
b1111111110000111 5"
b1100110 ."
b10011010 /"
b1111111110011010 0"
b10000010 )"
b1111110 *"
b1111110 +"
b11 I
b1011 N
b11 Z
b10001010 >
b10001010 X
b10001010 ^
b11110010110011010000010100000010110101110011011000000000000000000000000 F
b11110010110011010000010100000010110101110011011000000000000000000000000 `
b11110010110011010000010100000010110101110011011000000000000000000000000 e
b11 a
b10100010 +
b10100010 ;
b10100010 V
b10100010 \
b1011 (
1&
15
#320000
0&
05
#325000
b10001010 $"
b1110110 %"
b1110110 &"
b10000001 }
b1000 ~
b1111110000001000 !"
b1101011 x
b10010101 y
b1111111110010101 z
b10100010 3"
b1011110 4"
b1011110 5"
b1111001 ."
b10000111 /"
b1111111110000111 0"
b1100110 )"
b10011010 *"
b1111111110011010 +"
b1111111 [
b100 I
b1100 N
b101000100111100101100110100010101000000101101011000000000000000000000000 F
b101000100111100101100110100010101000000101101011000000000000000000000000 `
b101000100111100101100110100010101000000101101011000000000000000000000000 e
b100 a
b100 Z
b1111111 >
b1111111 X
b1111111 ^
b10111000 +
b10111000 ;
b10111000 V
b10111000 \
b1100 (
1&
15
#330000
0&
05
#335000
b10010001 [
b1111111 $"
b10000001 %"
b1111111110000001 &"
b10001010 }
b1010000 ~
b1111110001010000 !"
b10000001 x
b1111111 y
b1111111 z
b10111000 3"
b1001000 4"
b1001000 5"
b10100010 ."
b1011110 /"
b1011110 0"
b1111001 )"
b10000111 *"
b1111111110000111 +"
b101 I
b1101 N
b101 Z
b10010001 >
b10010001 X
b10010001 ^
b101110001010001001111001011111111000101010000001000000000000000000000000 F
b101110001010001001111001011111111000101010000001000000000000000000000000 `
b101110001010001001111001011111111000101010000001000000000000000000000000 e
b101 a
b1111011 +
b1111011 ;
b1111011 V
b1111011 \
b1101 (
1&
15
#340000
0&
05
#345000
b10010001 $"
b1101111 %"
b1101111 &"
b1111111 }
b11111000 ~
b1111111000 !"
b10001010 x
b1110110 y
b1110110 z
b1111011 3"
b10000101 4"
b1111111110000101 5"
b10111000 ."
b1001000 /"
b1001000 0"
b10100010 )"
b1011110 *"
b1011110 +"
b10100001 [
b110 I
b1110 N
b11110111011100010100010100100010111111110001010000000000000000000000000 F
b11110111011100010100010100100010111111110001010000000000000000000000000 `
b11110111011100010100010100100010111111110001010000000000000000000000000 e
b110 a
b110 Z
b10100001 >
b10100001 X
b10100001 ^
b1111100 +
b1111100 ;
b1111100 V
b1111100 \
b1110 (
1&
15
#350000
0&
05
#355000
b1011001 [
b10100001 $"
b1011111 %"
b1011111 &"
b10010001 }
b10001000 ~
b1111110010001000 !"
b1111111 x
b10000001 y
b1111111110000001 z
b1111100 3"
b10000100 4"
b1111111110000100 5"
b1111011 ."
b10000101 /"
b1111111110000101 0"
b10111000 )"
b1001000 *"
b1001000 +"
b111 I
b1111 N
b111 Z
b1011001 >
b1011001 X
b1011001 ^
b11111000111101110111000101000011001000101111111000000000000000000000000 F
b11111000111101110111000101000011001000101111111000000000000000000000000 `
b11111000111101110111000101000011001000101111111000000000000000000000000 e
b111 a
b1010101 +
b1010101 ;
b1010101 V
b1010101 \
b1111 (
1&
15
#360000
0&
05
#365000
b1011001 $"
b10100111 %"
b1111111110100111 &"
b10100001 }
b1000 ~
b1111110100001000 !"
b10010001 x
b1101111 y
b1101111 z
b1010101 3"
b10101011 4"
b1111111110101011 5"
b1111100 ."
b10000100 /"
b1111111110000100 0"
b1111011 )"
b10000101 *"
b1111111110000101 +"
b10000010 [
b10011011 _
b10 P
b0 I
b10000 N
b10101010111110001111011010110011010000110010001000000000000000000000000 F
b10101010111110001111011010110011010000110010001000000000000000000000000 `
b10101010111110001111011010110011010000110010001000000000000000000000000 e
b10 c
b0 a
b0 Z
b1001101110000010 >
b1001101110000010 X
b1001101110000010 ^
b10000011 +
b10000011 ;
b10000011 V
b10000011 \
b10000 (
1&
15
#370000
0&
05
#375000
b1100110 [
b1101011 _
b10011011 s
b1100101 t
b1100101 u
b10000010 $"
b1111110 %"
b1111110 &"
b1011001 }
b11001000 ~
b1011001000 !"
b10100001 x
b1011111 y
b1011111 z
b10000011 3"
b1111101 4"
b1111101 5"
b1010101 ."
b10101011 /"
b1111111110101011 0"
b1111100 )"
b10000100 *"
b1111111110000100 +"
b1 I
b10001 N
b1 Z
b110101101100110 >
b110101101100110 X
b110101101100110 ^
b100000110101010101111100100000100101100110100001100110110000000000000000 F
b100000110101010101111100100000100101100110100001100110110000000000000000 `
b100000110101010101111100100000100101100110100001100110110000000000000000 e
b1 a
b1101100 +
b1101100 ;
b1101100 V
b1101100 \
b10001 (
1&
15
#380000
0&
05
#385000
1H
b1101011 s
b10010101 t
b1111111110010101 u
b10011011 n
b1100101 o
b1100101 p
b1100110 $"
b10011010 %"
b1111111110011010 &"
b10000010 }
b10000 ~
b1111110000010000 !"
b1011001 x
b10100111 y
b1111111110100111 z
b1101100 3"
b10010100 4"
b1111111110010100 5"
b10000011 ."
b1111101 /"
b1111101 0"
b1010101 )"
b10101011 *"
b1111111110101011 +"
b1111001 [
b10000001 _
b10 I
b10010 N
b11011001000001101010101011001101000001001011001011010111001101100000000 F
b11011001000001101010101011001101000001001011001011010111001101100000000 `
b11011001000001101010101011001101000001001011001011010111001101100000000 e
b10 a
b10 Z
b1000000101111001 >
b1000000101111001 X
b1000000101111001 ^
b10000000 +
b10000000 ;
b10000000 V
b10000000 \
b10010 (
1&
15
#390000
0&
05
#395000
b10100010 [
b10001010 _
b10000001 s
b1111111 t
b1111111 u
b1101011 n
b10010101 o
b1111111110010101 p
b10011011 i
b1100101 j
b1100101 k
b1111001 $"
b10000111 %"
b1111111110000111 &"
b1100110 }
b110000 ~
b1100110000 !"
b10000010 x
b1111110 y
b1111110 z
b10000000 3"
b10000000 4"
b10000000 5"
b1101100 ."
b10010100 /"
b1111111110010100 0"
b10000011 )"
b1111101 *"
b1111101 +"
1O
16
b11 I
b10011 N
b11 Z
b1000101010100010 >
b1000101010100010 X
b1000101010100010 ^
1d
1G
b100000000110110010000011011110010110011010000010100000010110101110011011 F
b100000000110110010000011011110010110011010000010100000010110101110011011 `
b100000000110110010000011011110010110011010000010100000010110101110011011 e
b11 a
b10010011 +
b10010011 ;
b10010011 V
b10010011 \
b10011 (
1&
15
#400000
0&
05
#405000
b10000111111 ;"
b1001 9"
b10001010 s
b1110110 t
b1110110 u
b10000001 n
b1111111 o
b1111111 p
b1101011 i
b10010101 j
b1111111110010101 k
b10100010 $"
b1011110 %"
b1011110 &"
b1111001 }
b11001000 ~
b1111001000 !"
b1100110 x
b10011010 y
b1111111110011010 z
b10010011 3"
b1101101 4"
b1101101 5"
b10000000 ."
b10000000 /"
b10000000 0"
b1101100 )"
b10010100 *"
b1111111110010100 +"
b10111000 [
b1111111 _
b100 I
b10100 N
1O
16
b1100101 m
b1111111110010101 r
b1111111 w
b1111110 |
b1100110000 #"
b1111111110000111 ("
b1111101 -"
b1111111110010100 2"
b10000000 7"
b1000000011111111100101000000000001111101111111111000011100000011001100000000000001111110000000000111111111111111100101010000000001100101 =
b1000000011111111100101000000000001111101111111111000011100000011001100000000000001111110000000000111111111111111100101010000000001100101 f
b1000000011111111100101000000000001111101111111111000011100000011001100000000000001111110000000000111111111111111100101010000000001100101 8"
1h
18
b100100111000000001101100101000100111100101100110100010101000000101101011 F
b100100111000000001101100101000100111100101100110100010101000000101101011 `
b100100111000000001101100101000100111100101100110100010101000000101101011 e
b100 a
b100 Z
b111111110111000 >
b111111110111000 X
b111111110111000 ^
b10100101 +
b10100101 ;
b10100101 V
b10100101 \
b10100 (
1&
15
#410000
0&
05
#415000
b11111111 ?"
b1001 9"
b10011001011 ;"
b10000111111 >"
b1111011 [
b10010001 _
b1111111 s
b10000001 t
b1111111110000001 u
b10001010 n
b1110110 o
b1110110 p
b10000001 i
b1111111 j
b1111111 k
b10111000 $"
b1001000 %"
b1001000 &"
b10100010 }
b10000 ~
b1111110100010000 !"
b1111001 x
b10000111 y
b1111111110000111 z
b10100101 3"
b1011011 4"
b1011011 5"
b10010011 ."
b1101101 /"
b1101101 0"
b10000000 )"
b10000000 *"
b10000000 +"
1<"
14
b10000111111 :"
b10000111111 3
b10000111111 ="
b1101101 7"
b10000000 2"
b1111111110010100 -"
b1011110 ("
b1111001000 #"
b1111111110011010 |
b1110110 w
b1111111 r
b1111111110010101 m
b110110100000000100000001111111110010100000000000101111000000011110010001111111110011010000000000111011000000000011111111111111110010101 =
b110110100000000100000001111111110010100000000000101111000000011110010001111111110011010000000000111011000000000011111111111111110010101 f
b110110100000000100000001111111110010100000000000101111000000011110010001111111110011010000000000111011000000000011111111111111110010101 8"
b101 I
b10101 N
1O
16
b101 Z
b1001000101111011 >
b1001000101111011 X
b1001000101111011 ^
b101001011001001110000000101110001010001001111001011111111000101010000001 F
b101001011001001110000000101110001010001001111001011111111000101010000001 `
b101001011001001110000000101110001010001001111001011111111000101010000001 e
b101 a
b10111001 +
b10111001 ;
b10111001 V
b10111001 \
b10101 (
1&
15
#420000
0&
05
#425000
b1001 9"
b11111111111111111111111010011101 ;"
b10011001011 >"
b10010001 s
b1101111 t
b1101111 u
b1111111 n
b10000001 o
b1111111110000001 p
b10001010 i
b1110110 j
b1110110 k
b1111011 $"
b10000101 %"
b1111111110000101 &"
b10111000 }
b11000000 ~
b1111110111000000 !"
b10100010 x
b1011110 y
b1011110 z
b10111001 3"
b1000111 4"
b1000111 5"
b10100101 ."
b1011011 /"
b1011011 0"
b10010011 )"
b1101101 *"
b1101101 +"
b1111100 [
b10100001 _
b110 I
b10110 N
1O
16
b1111111 m
b1110110 r
b1111111110000001 w
b1111111110000111 |
b1111110100010000 #"
b1001000 ("
b10000000 -"
b1101101 2"
b1011011 7"
b101101100000000011011010000000010000000000000000100100011111101000100001111111110000111111111111000000100000000011101100000000001111111 =
b101101100000000011011010000000010000000000000000100100011111101000100001111111110000111111111111000000100000000011101100000000001111111 f
b101101100000000011011010000000010000000000000000100100011111101000100001111111110000111111111111000000100000000011101100000000001111111 8"
b10011001011 :"
b10011001011 3
b10011001011 ="
1A"
1#
b11111111 @"
b11111111 "
b11111111 7
b101110011010010110010011011110111011100010100010100100010111111110001010 F
b101110011010010110010011011110111011100010100010100100010111111110001010 `
b101110011010010110010011011110111011100010100010100100010111111110001010 e
b110 a
b110 Z
b1010000101111100 >
b1010000101111100 X
b1010000101111100 ^
b1101111 +
b1101111 ;
b1101111 V
b1101111 \
b10110 (
1&
15
#430000
0&
05
