tb_cnn_fpga_top.vcd
$date
	Mon Mar 16 23:43:44 2026
$end
$version
	Icarus Verilog
$end
$timescale
	1ps
$end
$scope module tb_cnn_fpga_top $end
$var wire 16 ! feature_out [15:0] $end
$var wire 1 " valid $end
$var integer 32 # acc_sw [31:0] $end
$var integer 32 $ cap_idx [31:0] $end
$var integer 32 % cc [31:0] $end
$var reg 1 & clk $end
$var integer 32 ' fail_cnt [31:0] $end
$var integer 32 ( i [31:0] $end
$var integer 32 ) kc [31:0] $end
$var integer 32 * kr [31:0] $end
$var integer 32 + mismatch [31:0] $end
$var integer 32 , pass_cnt [31:0] $end
$var integer 32 - rr [31:0] $end
$var reg 1 . rst $end
$var reg 1 / start $end
$scope module dut $end
$var wire 32 0 acc_result [31:0] $end
$var wire 1 1 acc_valid $end
$var wire 1 2 clk $end
$var wire 1 3 ctrl_result_valid $end
$var wire 1 4 done_fsm $end
$var wire 16 5 feature_out [15:0] $end
$var wire 1 6 frame_done $end
$var wire 1 7 mac_valid $end
$var wire 1 8 pipe_en_fsm $end
$var wire 8 9 pixel_in [7:0] $end
$var wire 1 : pixel_valid $end
$var wire 144 ; products [143:0] $end
$var wire 8 < relu_out [7:0] $end
$var wire 1 = relu_valid $end
$var wire 1 > rom_en $end
$var wire 16 ? row_out_flat [15:0] $end
$var wire 1 @ rst $end
$var wire 1 A rst_n $end
$var wire 1 B start $end
$var wire 1 " valid $end
$var wire 72 C weight_flat [71:0] $end
$var wire 1 D weight_loaded $end
$var wire 4 E weight_wr_addr_w [3:0] $end
$var wire 8 F weight_wr_data_w [7:0] $end
$var wire 1 G weight_wr_en_w $end
$var wire 72 H window_flat [71:0] $end
$var wire 1 I window_valid $end
$var reg 1 J start_latched $end
$var reg 4 K w_addr_r [3:0] $end
$var reg 8 L w_data_r [7:0] $end
$var reg 1 M w_en_r $end
$var reg 1 N wload_active $end
$var reg 4 O wload_cnt [3:0] $end
$var reg 1 P wload_done $end
$scope function krn_val $end
$var integer 32 Q idx [31:0] $end
$var reg 8 R krn_val [7:0] $end
$upscope $end
$scope module u_ctrl $end
$var wire 1 2 clk $end
$var wire 1 S in_valid_region $end
$var wire 1 : pixel_valid_in $end
$var wire 1 A rst_n $end
$var wire 1 B start $end
$var wire 1 D weight_loaded $end
$var reg 3 T col_cnt [2:0] $end
$var reg 1 U done_out $end
$var reg 2 V next_state [1:0] $end
$var reg 6 W out_cnt [5:0] $end
$var reg 1 X pipe_en $end
$var reg 7 Y pixel_cnt [6:0] $end
$var reg 1 Z result_valid $end
$var reg 3 [ row_cnt [2:0] $end
$var reg 2 \ state [1:0] $end
$upscope $end
$scope module u_weights $end
$var wire 1 2 clk $end
$var wire 1 A rst_n $end
$var wire 72 ] weight_flat [71:0] $end
$var wire 1 D weight_loaded $end
$var wire 4 ^ weight_wr_addr [3:0] $end
$var wire 8 _ weight_wr_data [7:0] $end
$var wire 1 G weight_wr_en $end
$var integer 32 ` i [31:0] $end
$scope begin gen_wflat[0] $end
$upscope $end
$scope begin gen_wflat[1] $end
$upscope $end
$scope begin gen_wflat[2] $end
$upscope $end
$scope begin gen_wflat[3] $end
$upscope $end
$scope begin gen_wflat[4] $end
$upscope $end
$scope begin gen_wflat[5] $end
$upscope $end
$scope begin gen_wflat[6] $end
$upscope $end
$scope begin gen_wflat[7] $end
$upscope $end
$scope begin gen_wflat[8] $end
$upscope $end
$upscope $end
$scope module u_img_rom $end
$var wire 1 2 clk $end
$var wire 1 > en $end
$var wire 1 @ rst $end
$var reg 6 a addr [5:0] $end
$var reg 1 b frame_done $end
$var reg 8 c pixel_out [7:0] $end
$var reg 1 d pixel_valid $end
$var reg 1 e running $end
$upscope $end
$scope module u_line_buf $end
$var wire 1 2 clk $end
$var wire 8 f pixel_in [7:0] $end
$var wire 1 : pixel_valid $end
$var wire 16 g row_out_flat [15:0] $end
$var wire 1 A rst_n $end
$var integer 32 h c [31:0] $end
$var reg 3 i col_idx [2:0] $end
$upscope $end
$scope module u_win_gen $end
$var wire 1 2 clk $end
$var wire 8 j mid_tap [7:0] $end
$var wire 8 k pixel_in [7:0] $end
$var wire 1 : pixel_valid $end
$var wire 16 l row_out_flat [15:0] $end
$var wire 1 A rst_n $end
$var wire 8 m top_tap [7:0] $end
$var wire 72 n window_flat [71:0] $end
$var reg 3 o col_cnt [2:0] $end
$var integer 32 p i [31:0] $end
$var reg 3 q row_cnt [2:0] $end
$var reg 1 r window_valid $end
$upscope $end
$scope module u_mac_arr $end
$var wire 1 2 clk $end
$var wire 1 I enable $end
$var wire 72 s pixel_flat [71:0] $end
$var wire 144 t products [143:0] $end
$var wire 1 A rst_n $end
$var wire 72 u weight_flat [71:0] $end
$var reg 1 v valid_out $end
$scope begin gen_mac[0] $end
$scope module u_mac $end
$var wire 1 2 clk $end
$var wire 8 w data_in [7:0] $end
$var wire 1 I enable $end
$var wire 16 x product_wire [15:0] $end
$var wire 16 y raw_product [15:0] $end
$var wire 1 A rst_n $end
$var wire 8 z weight_in [7:0] $end
$var reg 16 { product_out [15:0] $end
$scope begin gen_reg $end
$upscope $end
$upscope $end
$upscope $end
$scope begin gen_mac[1] $end
$scope module u_mac $end
$var wire 1 2 clk $end
$var wire 8 | data_in [7:0] $end
$var wire 1 I enable $end
$var wire 16 } product_wire [15:0] $end
$var wire 16 ~ raw_product [15:0] $end
$var wire 1 A rst_n $end
$var wire 8 !" weight_in [7:0] $end
$var reg 16 "" product_out [15:0] $end
$scope begin gen_reg $end
$upscope $end
$upscope $end
$upscope $end
$scope begin gen_mac[2] $end
$scope module u_mac $end
$var wire 1 2 clk $end
$var wire 8 #" data_in [7:0] $end
$var wire 1 I enable $end
$var wire 16 $" product_wire [15:0] $end
$var wire 16 %" raw_product [15:0] $end
$var wire 1 A rst_n $end
$var wire 8 &" weight_in [7:0] $end
$var reg 16 '" product_out [15:0] $end
$scope begin gen_reg $end
$upscope $end
$upscope $end
$upscope $end
$scope begin gen_mac[3] $end
$scope module u_mac $end
$var wire 1 2 clk $end
$var wire 8 (" data_in [7:0] $end
$var wire 1 I enable $end
$var wire 16 )" product_wire [15:0] $end
$var wire 16 *" raw_product [15:0] $end
$var wire 1 A rst_n $end
$var wire 8 +" weight_in [7:0] $end
$var reg 16 ," product_out [15:0] $end
$scope begin gen_reg $end
$upscope $end
$upscope $end
$upscope $end
$scope begin gen_mac[4] $end
$scope module u_mac $end
$var wire 1 2 clk $end
$var wire 8 -" data_in [7:0] $end
$var wire 1 I enable $end
$var wire 16 ." product_wire [15:0] $end
$var wire 16 /" raw_product [15:0] $end
$var wire 1 A rst_n $end
$var wire 8 0" weight_in [7:0] $end
$var reg 16 1" product_out [15:0] $end
$scope begin gen_reg $end
$upscope $end
$upscope $end
$upscope $end
$scope begin gen_mac[5] $end
$scope module u_mac $end
$var wire 1 2 clk $end
$var wire 8 2" data_in [7:0] $end
$var wire 1 I enable $end
$var wire 16 3" product_wire [15:0] $end
$var wire 16 4" raw_product [15:0] $end
$var wire 1 A rst_n $end
$var wire 8 5" weight_in [7:0] $end
$var reg 16 6" product_out [15:0] $end
$scope begin gen_reg $end
$upscope $end
$upscope $end
$upscope $end
$scope begin gen_mac[6] $end
$scope module u_mac $end
$var wire 1 2 clk $end
$var wire 8 7" data_in [7:0] $end
$var wire 1 I enable $end
$var wire 16 8" product_wire [15:0] $end
$var wire 16 9" raw_product [15:0] $end
$var wire 1 A rst_n $end
$var wire 8 :" weight_in [7:0] $end
$var reg 16 ;" product_out [15:0] $end
$scope begin gen_reg $end
$upscope $end
$upscope $end
$upscope $end
$scope begin gen_mac[7] $end
$scope module u_mac $end
$var wire 1 2 clk $end
$var wire 8 <" data_in [7:0] $end
$var wire 1 I enable $end
$var wire 16 =" product_wire [15:0] $end
$var wire 16 >" raw_product [15:0] $end
$var wire 1 A rst_n $end
$var wire 8 ?" weight_in [7:0] $end
$var reg 16 @" product_out [15:0] $end
$scope begin gen_reg $end
$upscope $end
$upscope $end
$upscope $end
$scope begin gen_mac[8] $end
$scope module u_mac $end
$var wire 1 2 clk $end
$var wire 8 A" data_in [7:0] $end
$var wire 1 I enable $end
$var wire 16 B" product_wire [15:0] $end
$var wire 16 C" raw_product [15:0] $end
$var wire 1 A rst_n $end
$var wire 8 D" weight_in [7:0] $end
$var reg 16 E" product_out [15:0] $end
$scope begin gen_reg $end
$upscope $end
$upscope $end
$upscope $end
$upscope $end
$scope module u_accum $end
$var wire 1 2 clk $end
$var wire 144 F" products [143:0] $end
$var wire 1 A rst_n $end
$var wire 1 7 valid_in $end
$var integer 32 G" i [31:0] $end
$var reg 32 H" result [31:0] $end
$var reg 32 I" sum_comb [31:0] $end
$var reg 1 J" valid_out $end
$scope begin gen_pad[0] $end
$upscope $end
$scope begin gen_pad[1] $end
$upscope $end
$scope begin gen_pad[2] $end
$upscope $end
$scope begin gen_pad[3] $end
$upscope $end
$scope begin gen_pad[4] $end
$upscope $end
$scope begin gen_pad[5] $end
$upscope $end
$scope begin gen_pad[6] $end
$upscope $end
$scope begin gen_pad[7] $end
$upscope $end
$scope begin gen_pad[8] $end
$upscope $end
$upscope $end
$scope module u_relu $end
$var wire 32 K" acc_in [31:0] $end
$var wire 1 2 clk $end
$var wire 32 L" relu_val [31:0] $end
$var wire 1 A rst_n $end
$var wire 8 M" sat_val [7:0] $end
$var wire 1 1 valid_in $end
$var reg 8 N" feature [7:0] $end
$var reg 1 O" valid_out $end
$upscope $end
$scope module u_fmap $end
$var wire 1 2 clk $end
$var wire 8 P" feature_in [7:0] $end
$var wire 1 @ rst $end
$var wire 1 = valid_in $end
$var reg 1 Q" capture_done $end
$var reg 7 R" cnt [6:0] $end
$var reg 16 S" feature_out [15:0] $end
$var reg 2 T" state [1:0] $end
$var reg 1 U" valid_out $end
$upscope $end
$upscope $end
$scope begin wait_loop $end
$var integer 32 V" timeout_cnt [31:0] $end
$upscope $end
$scope task compute_expected $end
$upscope $end
$upscope $end
$enddefinitions $end
#0
$dumpvars
bx V"
xU"
bx T"
bx S"
bx R"
xQ"
bx P"
xO"
bx N"
bx M"
bx L"
bx K"
xJ"
bx I"
bx H"
b1001 G"
bx F"
bx E"
b0 D"
b0 C"
b0 B"
b0 A"
bx @"
b0 ?"
b0 >"
b0 ="
b0 <"
bx ;"
b0 :"
b0 9"
b0 8"
b0 7"
bx 6"
b0 5"
b0 4"
b0 3"
b0 2"
bx 1"
b0 0"
b0 /"
b0 ."
b0 -"
bx ,"
b0 +"
b0 *"
b0 )"
b0 ("
bx '"
b0 &"
b0 %"
b0 $"
b0 #"
bx ""
b0 !"
b0 ~
b0 }
b0 |
bx {
b0 z
b0 y
b0 x
b0 w
xv
b0 u
bx t
b0 s
0r
b0 q
b11 p
b0 o
b0 n
b0 m
b0 l
bx k
b0 j
b0 i
b1000 h
b0 g
bx f
xe
xd
bx c
xb
bx a
b1001 `
bx _
bx ^
b0 ]
bx \
bx [
xZ
bx Y
xX
bx W
bx V
xU
bx T
xS
bx R
bx Q
xP
bx O
xN
xM
bx L
bx K
xJ
0I
b0 H
xG
bx F
bx E
xD
b0 C
0B
0A
1@
b0 ?
x>
x=
bx <
bx ;
x:
bx 9
x8
x7
x6
bx 5
x4
x3
02
x1
bx 0
0/
1.
b110 -
b0 ,
bx +
b11 *
b11 )
b1000000 (
b0 '
0&
b110 %
b0 $
b0 #
x"
bx !
$end
#5000
b1001 G"
b0 I"
b0 M"
0S
b0 L"
b0 V
0>
b0 \
0Z
03
0U
04
0X
08
b0 [
b0 T
b0 W
b0 Y
0b
06
b0 c
b0 9
b0 f
b0 k
0d
0:
0e
b0 a
b0 {
b0 ""
b0 '"
b0 ,"
b0 1"
b0 6"
b0 ;"
b0 @"
b0 E"
b0 ;
b0 t
b0 F"
0v
07
0J"
01
b0 H"
b0 0
b0 K"
0O"
0=
b0 N"
b0 <
b0 P"
b0 S"
b0 !
b0 5
0U"
0"
0Q"
b0 R"
b0 T"
b0 L
b0 F
b0 _
b0 K
b0 E
b0 ^
0M
0G
0D
0N
0P
b0 O
0J
b11 p
b1000 h
b1001 `
1&
12
#10000
0&
02
#15000
b1001 `
b1000 h
b11 p
1&
12
#20000
0&
02
#25000
b11 p
b1000 h
b1001 `
1&
12
#30000
0&
02
#35000
b1001 `
b1000 h
b11 p
1&
12
#40000
0&
02
#45000
b11 p
b1000 h
b1001 `
1&
12
#50000
0&
02
#55000
b1001 `
b1000 h
b11 p
1&
12
#60000
0&
02
#65000
b11 p
b1000 h
b1001 `
1&
12
#70000
0&
02
#75000
b1001 `
b1000 h
b11 p
1&
12
#80000
1A
0.
0@
0&
02
#85000
1N
1&
12
#90000
0&
02
#95000
b1 O
b11111111 L
b11111111 F
b11111111 _
1M
1G
1D
b11111111 R
b0 Q
1&
12
#100000
0&
02
#105000
b11111111 z
b10 O
b1 K
b1 E
b1 ^
1M
1G
1D
b11111111 C
b11111111 ]
b11111111 u
b1 Q
1&
12
#110000
0&
02
#115000
b11111111 !"
b11 O
b10 K
b10 E
b10 ^
1M
1G
1D
b1111111111111111 C
b1111111111111111 ]
b1111111111111111 u
b10 Q
1&
12
#120000
0&
02
#125000
b11111111 &"
b100 O
b11 K
b11 E
b11 ^
1M
1G
1D
b111111111111111111111111 C
b111111111111111111111111 ]
b111111111111111111111111 u
b11 Q
1&
12
#130000
0&
02
#135000
b11111111 +"
b101 O
b1000 L
b1000 F
b1000 _
b100 K
b100 E
b100 ^
1M
1G
1D
b11111111111111111111111111111111 C
b11111111111111111111111111111111 ]
b11111111111111111111111111111111 u
b1000 R
b100 Q
1&
12
#140000
0&
02
#145000
b1000 0"
b110 O
b11111111 L
b11111111 F
b11111111 _
b101 K
b101 E
b101 ^
1M
1G
1D
b100011111111111111111111111111111111 C
b100011111111111111111111111111111111 ]
b100011111111111111111111111111111111 u
b11111111 R
b101 Q
1&
12
#150000
0&
02
#155000
b11111111 5"
b111 O
b110 K
b110 E
b110 ^
1M
1G
1D
b111111110000100011111111111111111111111111111111 C
b111111110000100011111111111111111111111111111111 ]
b111111110000100011111111111111111111111111111111 u
b110 Q
1&
12
#160000
0&
02
#165000
b11111111 :"
b1000 O
b111 K
b111 E
b111 ^
1M
1G
1D
b11111111111111110000100011111111111111111111111111111111 C
b11111111111111110000100011111111111111111111111111111111 ]
b11111111111111110000100011111111111111111111111111111111 u
b111 Q
1&
12
#170000
0&
02
#175000
b11111111 ?"
b1001 O
b1000 K
b1000 E
b1000 ^
1M
1G
1D
b1111111111111111111111110000100011111111111111111111111111111111 C
b1111111111111111111111110000100011111111111111111111111111111111 ]
b1111111111111111111111110000100011111111111111111111111111111111 u
b1000 Q
1&
12
#180000
0&
02
#185000
b11111111 D"
0N
1P
0M
0G
0D
b111111111111111111111111111111110000100011111111111111111111111111111111 C
b111111111111111111111111111111110000100011111111111111111111111111111111 ]
b111111111111111111111111111111110000100011111111111111111111111111111111 u
1&
12
#190000
0&
02
#195000
1&
12
#200000
0&
02
#205000
1&
12
#210000
0&
02
#215000
1&
12
#220000
0&
02
#225000
1&
12
#230000
0&
02
#235000
1&
12
#240000
0&
02
#245000
1&
12
#250000
0&
02
#255000
1&
12
#260000
0&
02
#265000
1&
12
#270000
b1 V
1/
1B
0&
02
#275000
1>
1J
b1 \
1&
12
#280000
b0 V"
0/
0B
0&
02
#285000
1d
1:
1e
b1 V"
1&
12
#290000
0&
02
#295000
b1 a
b1 i
b1 o
b10 V"
1&
12
#300000
0&
02
#305000
b10 a
b10 o
b10 i
b11 V"
1&
12
#310000
0&
02
#315000
b11 a
b11 i
b11 o
b100 V"
1&
12
#320000
0&
02
#325000
b100 a
b100 o
b100 i
b101 V"
1&
12
#330000
0&
02
#335000
b101 a
b101 i
b101 o
b110 V"
1&
12
#340000
0&
02
#345000
b110 a
b110 o
b110 i
b111 V"
1&
12
#350000
0&
02
#355000
b111 a
b111 i
b111 o
b1000 V"
1&
12
#360000
0&
02
#365000
b1000 a
b1 q
b0 o
b0 i
b1001 V"
1&
12
#370000
0&
02
#375000
b1001 a
b1 i
b1 o
b1010 V"
1&
12
#380000
0&
02
#385000
b1010 a
b10 o
b10 i
b1011 V"
1&
12
#390000
0&
02
#395000
b1011 a
b11 i
b11 o
b1100 V"
1&
12
#400000
0&
02
#405000
b1100 a
b100 o
b100 i
b1101 V"
1&
12
#410000
0&
02
#415000
b1101 a
b101 i
b101 o
b1110 V"
1&
12
#420000
0&
02
#425000
b1110 a
b110 o
b110 i
b1111 V"
1&
12
#430000
0&
02
#435000
b1111 a
b111 i
b111 o
b10000 V"
1&
12
#440000
0&
02
#445000
b10000 a
b10 q
b0 o
b0 i
b10001 V"
1&
12
#450000
0&
02
#455000
b10001 a
b1 i
b1 o
b10010 V"
1&
12
#460000
0&
02
#465000
b10001 c
b10001 9
b10001 f
b10001 k
b10010 a
b10 o
b10 i
b10011 V"
1&
12
#470000
0&
02
#475000
b10001 A"
b11101111 B"
b1111111111101111 C"
b11000 c
b11000 9
b11000 f
b11000 k
b10011 a
b11 i
b0 ?
b0 g
b0 l
1r
1I
b100010000000000000000000000000000000000000000000000000000000000000000 H
b100010000000000000000000000000000000000000000000000000000000000000000 n
b100010000000000000000000000000000000000000000000000000000000000000000 s
b11 o
b10100 V"
1&
12
#480000
0&
02
#485000
b11111111111111111111111111101111 I"
b1001 G"
b11000 A"
b11101000 B"
b1111111111101000 C"
b10001 <"
b11101111 ="
b1111111111101111 >"
b10010 c
b10010 9
b10010 f
b10010 k
b10100 a
b1111111111101111 E"
b111111111110111100000000000000000000000000000000000000000000000000000000000000000000000000000000000000000000000000000000000000000000000000000000 ;
b111111111110111100000000000000000000000000000000000000000000000000000000000000000000000000000000000000000000000000000000000000000000000000000000 t
b111111111110111100000000000000000000000000000000000000000000000000000000000000000000000000000000000000000000000000000000000000000000000000000000 F"
1v
17
b110000001000100000000000000000000000000000000000000000000000000000000 H
b110000001000100000000000000000000000000000000000000000000000000000000 n
b110000001000100000000000000000000000000000000000000000000000000000000 s
b100 o
b100 i
b0 ?
b0 g
b0 l
b10101 V"
1&
12
#490000
0&
02
#495000
b0 M"
b1001 G"
b11111111111111111111111111010111 I"
b0 L"
b10010 A"
b11101110 B"
b1111111111101110 C"
b11000 <"
b11101000 ="
b1111111111101000 >"
b10001 7"
b11101111 8"
b1111111111101111 9"
1J"
11
b11111111111111111111111111101111 H"
b11111111111111111111111111101111 0
b11111111111111111111111111101111 K"
b1111111111101000 E"
b1111111111101111 @"
b111111111110100011111111111011110000000000000000000000000000000000000000000000000000000000000000000000000000000000000000000000000000000000000000 ;
b111111111110100011111111111011110000000000000000000000000000000000000000000000000000000000000000000000000000000000000000000000000000000000000000 t
b111111111110100011111111111011110000000000000000000000000000000000000000000000000000000000000000000000000000000000000000000000000000000000000000 F"
b10000 c
b10000 9
b10000 f
b10000 k
b10101 a
b101 i
b0 ?
b0 g
b0 l
b100100001100000010001000000000000000000000000000000000000000000000000 H
b100100001100000010001000000000000000000000000000000000000000000000000 n
b100100001100000010001000000000000000000000000000000000000000000000000 s
b101 o
b10110 V"
1&
12
#500000
0&
02
#505000
b1001 G"
b11111111111111111111111111000101 I"
b10000 A"
b11110000 B"
b1111111111110000 C"
b10010 <"
b11101110 ="
b1111111111101110 >"
b11000 7"
b11101000 8"
b1111111111101000 9"
b0 c
b0 9
b0 f
b0 k
b10110 a
b1111111111101111 ;"
b1111111111101000 @"
b1111111111101110 E"
b111111111110111011111111111010001111111111101111000000000000000000000000000000000000000000000000000000000000000000000000000000000000000000000000 ;
b111111111110111011111111111010001111111111101111000000000000000000000000000000000000000000000000000000000000000000000000000000000000000000000000 t
b111111111110111011111111111010001111111111101111000000000000000000000000000000000000000000000000000000000000000000000000000000000000000000000000 F"
b11111111111111111111111111010111 H"
b11111111111111111111111111010111 0
b11111111111111111111111111010111 K"
1O"
1=
b100000001001000011000000000000000000000000000000000000000000000000000 H
b100000001001000011000000000000000000000000000000000000000000000000000 n
b100000001001000011000000000000000000000000000000000000000000000000000 s
b110 o
b110 i
b0 ?
b0 g
b0 l
b10111 V"
1&
12
#510000
0&
02
#515000
b1001 G"
b11111111111111111111111111000110 I"
b0 A"
b0 B"
b0 C"
b10000 <"
b11110000 ="
b1111111111110000 >"
b10010 7"
b11101110 8"
b1111111111101110 9"
b1 R"
b11111111111111111111111111000101 H"
b11111111111111111111111111000101 0
b11111111111111111111111111000101 K"
b1111111111110000 E"
b1111111111101110 @"
b1111111111101000 ;"
b111111111111000011111111111011101111111111101000000000000000000000000000000000000000000000000000000000000000000000000000000000000000000000000000 ;
b111111111111000011111111111011101111111111101000000000000000000000000000000000000000000000000000000000000000000000000000000000000000000000000000 t
b111111111111000011111111111011101111111111101000000000000000000000000000000000000000000000000000000000000000000000000000000000000000000000000000 F"
b10111 a
b111 i
b1000000010010000000000000000000000000000000000000000000000000 H
b1000000010010000000000000000000000000000000000000000000000000 n
b1000000010010000000000000000000000000000000000000000000000000 s
b111 o
b11000 V"
1&
12
#520000
0&
02
#525000
b1001 G"
b11111111111111111111111111011110 I"
b0 <"
b0 ="
b0 >"
b10000 7"
b11110000 8"
b1111111111110000 9"
b11000 a
b1111111111101110 ;"
b1111111111110000 @"
b0 E"
b11111111111100001111111111101110000000000000000000000000000000000000000000000000000000000000000000000000000000000000000000000000 ;
b11111111111100001111111111101110000000000000000000000000000000000000000000000000000000000000000000000000000000000000000000000000 t
b11111111111100001111111111101110000000000000000000000000000000000000000000000000000000000000000000000000000000000000000000000000 F"
b11111111111111111111111111000110 H"
b11111111111111111111111111000110 0
b11111111111111111111111111000110 K"
b10 R"
b10000000000000000000000000000000000000000000000000000 H
b10000000000000000000000000000000000000000000000000000 n
b10000000000000000000000000000000000000000000000000000 s
b11 q
b0 o
b0 i
b11001 V"
1&
12
#530000
0&
02
#535000
b1001 G"
b11111111111111111111111111110000 I"
b0 7"
b0 8"
b0 9"
b11 R"
b11111111111111111111111111011110 H"
b11111111111111111111111111011110 0
b11111111111111111111111111011110 K"
b0 @"
b1111111111110000 ;"
b1111111111110000000000000000000000000000000000000000000000000000000000000000000000000000000000000000000000000000 ;
b1111111111110000000000000000000000000000000000000000000000000000000000000000000000000000000000000000000000000000 t
b1111111111110000000000000000000000000000000000000000000000000000000000000000000000000000000000000000000000000000 F"
b11001 a
b1 i
0r
0I
b0 H
b0 n
b0 s
b1 o
b11010 V"
1&
12
#540000
0&
02
#545000
b10001 j
b11010 a
0v
07
b11111111111111111111111111110000 H"
b11111111111111111111111111110000 0
b11111111111111111111111111110000 K"
b100 R"
b10 o
b10 i
b10001 ?
b10001 g
b10001 l
b11011 V"
1&
12
#550000
0&
02
#555000
b11000 j
b10001 2"
b11101111 3"
b1111111111101111 4"
b101 R"
0J"
01
b11011 a
b11 i
b11000 ?
b11000 g
b11000 l
1r
1I
b100010000000000000000000000000000000000000000 H
b100010000000000000000000000000000000000000000 n
b100010000000000000000000000000000000000000000 s
b11 o
b11100 V"
1&
12
#560000
0&
02
#565000
b1001 G"
b11111111111111111111111111101111 I"
b11000 2"
b11101000 3"
b1111111111101000 4"
b10001 -"
b10001000 ."
b10001000 /"
b10010 j
b11100 a
b1111111111101111 6"
b0 ;"
b111111111110111100000000000000000000000000000000000000000000000000000000000000000000000000000000 ;
b111111111110111100000000000000000000000000000000000000000000000000000000000000000000000000000000 t
b111111111110111100000000000000000000000000000000000000000000000000000000000000000000000000000000 F"
1v
17
0O"
0=
b110 R"
b110000001000100000000000000000000000000000000 H
b110000001000100000000000000000000000000000000 n
b110000001000100000000000000000000000000000000 s
b100 o
b100 i
b10010 ?
b10010 g
b10010 l
b11101 V"
1&
12
#570000
0&
02
#575000
b1001 G"
b1110000 I"
b10000 j
b10010 2"
b11101110 3"
b1111111111101110 4"
b11000 -"
b11000000 ."
b11000000 /"
b10001 ("
b11101111 )"
b1111111111101111 *"
1J"
11
b11111111111111111111111111101111 H"
b11111111111111111111111111101111 0
b11111111111111111111111111101111 K"
b1111111111101000 6"
b10001000 1"
b111111111110100000000000100010000000000000000000000000000000000000000000000000000000000000000000 ;
b111111111110100000000000100010000000000000000000000000000000000000000000000000000000000000000000 t
b111111111110100000000000100010000000000000000000000000000000000000000000000000000000000000000000 F"
b1000000 c
b1000000 9
b1000000 f
b1000000 k
b11101 a
b101 i
b10000 ?
b10000 g
b10000 l
b100100001100000010001000000000000000000000000 H
b100100001100000010001000000000000000000000000 n
b100100001100000010001000000000000000000000000 s
b101 o
b11110 V"
1&
12
#580000
0&
02
#585000
b1110000 M"
b1001 G"
b10011101 I"
b1110000 L"
b10000 2"
b11110000 3"
b1111111111110000 4"
b10010 -"
b10010000 ."
b10010000 /"
b11000 ("
b11101000 )"
b1111111111101000 *"
b1000000 A"
b11000000 B"
b1111111111000000 C"
b0 j
b0 c
b0 9
b0 f
b0 k
b11110 a
b1111111111101111 ,"
b11000000 1"
b1111111111101110 6"
b111111111110111000000000110000001111111111101111000000000000000000000000000000000000000000000000 ;
b111111111110111000000000110000001111111111101111000000000000000000000000000000000000000000000000 t
b111111111110111000000000110000001111111111101111000000000000000000000000000000000000000000000000 F"
b1110000 H"
b1110000 0
b1110000 K"
1O"
1=
b10000000000000000000000000100000001001000011000000000000000000000000000 H
b10000000000000000000000000100000001001000011000000000000000000000000000 n
b10000000000000000000000000100000001001000011000000000000000000000000000 s
b110 o
b110 i
b0 ?
b0 g
b0 l
b11111 V"
1&
12
#590000
0&
02
#595000
b10011101 M"
b1001 G"
b101000 I"
b10011101 L"
b0 2"
b0 3"
b0 4"
b10000 -"
b10000000 ."
b10000000 /"
b10010 ("
b11101110 )"
b1111111111101110 *"
b0 A"
b0 B"
b0 C"
b1000000 <"
b11000000 ="
b1111111111000000 >"
b111 R"
b1110000 N"
b1110000 <
b1110000 P"
b10011101 H"
b10011101 0
b10011101 K"
b1111111111000000 E"
b1111111111110000 6"
b10010000 1"
b1111111111101000 ,"
b111111111100000000000000000000000000000000000000111111111111000000000000100100001111111111101000000000000000000000000000000000000000000000000000 ;
b111111111100000000000000000000000000000000000000111111111111000000000000100100001111111111101000000000000000000000000000000000000000000000000000 t
b111111111100000000000000000000000000000000000000111111111111000000000000100100001111111111101000000000000000000000000000000000000000000000000000 F"
b11111 a
b111 i
b100000000000000000000000001000000010010000000000000000000000000 H
b100000000000000000000000001000000010010000000000000000000000000 n
b100000000000000000000000001000000010010000000000000000000000000 s
b111 o
b100000 V"
1&
12
#600000
0&
02
#605000
b101000 M"
b1001 G"
b101110 I"
b101000 L"
b0 -"
b0 ."
b0 /"
b10000 ("
b11110000 )"
b1111111111110000 *"
b0 <"
b0 ="
b0 >"
b1000000 7"
b11000000 8"
b1111111111000000 9"
b100000 a
b1111111111101110 ,"
b10000000 1"
b0 6"
b1111111111000000 @"
b0 E"
b11111111110000000000000000000000000000000000000000000000100000001111111111101110000000000000000000000000000000000000000000000000 ;
b11111111110000000000000000000000000000000000000000000000100000001111111111101110000000000000000000000000000000000000000000000000 t
b11111111110000000000000000000000000000000000000000000000100000001111111111101110000000000000000000000000000000000000000000000000 F"
b101000 H"
b101000 0
b101000 K"
b10011101 N"
b10011101 <
b10011101 P"
b1000 R"
b1000000000000000000000000010000000000000000000000000000 H
b1000000000000000000000000010000000000000000000000000000 n
b1000000000000000000000000010000000000000000000000000000 s
b100 q
b0 o
b0 i
b100001 V"
1&
12
#610000
0&
02
#615000
b101110 M"
b1001 G"
b11111111111111111111111110110000 I"
b101110 L"
b0 ("
b0 )"
b0 *"
b0 7"
b0 8"
b0 9"
b1001 R"
b101000 N"
b101000 <
b101000 P"
b101110 H"
b101110 0
b101110 K"
b0 @"
b1111111111000000 ;"
b0 1"
b1111111111110000 ,"
b1111111111000000000000000000000000000000000000001111111111110000000000000000000000000000000000000000000000000000 ;
b1111111111000000000000000000000000000000000000001111111111110000000000000000000000000000000000000000000000000000 t
b1111111111000000000000000000000000000000000000001111111111110000000000000000000000000000000000000000000000000000 F"
b100001 a
b1 i
0r
0I
b0 H
b0 n
b0 s
b1 o
b100010 V"
1&
12
#620000
0&
02
#625000
b0 M"
b0 L"
b10001 m
b100010 a
0v
07
b11111111111111111111111110110000 H"
b11111111111111111111111110110000 0
b11111111111111111111111110110000 K"
b101110 N"
b101110 <
b101110 P"
b1010 R"
b10 o
b10 i
b1000100000000 ?
b1000100000000 g
b1000100000000 l
b100011 V"
1&
12
#630000
0&
02
#635000
b11000 m
b10001 #"
b11101111 $"
b1111111111101111 %"
b1011 R"
b0 N"
b0 <
b0 P"
0J"
01
b100011 a
b11 i
b1100000000000 ?
b1100000000000 g
b1100000000000 l
1r
1I
b100010000000000000000 H
b100010000000000000000 n
b100010000000000000000 s
b11 o
b100100 V"
1&
12
#640000
0&
02
#645000
b1001 G"
b11111111111111111111111111101111 I"
b11000 #"
b11101000 $"
b1111111111101000 %"
b10001 |
b11101111 }
b1111111111101111 ~
b10010 m
b111001 c
b111001 9
b111001 f
b111001 k
b100100 a
b1111111111101111 '"
b0 ,"
b0 ;"
b111111111110111100000000000000000000000000000000 ;
b111111111110111100000000000000000000000000000000 t
b111111111110111100000000000000000000000000000000 F"
1v
17
0O"
0=
b1100 R"
b110000001000100000000 H
b110000001000100000000 n
b110000001000100000000 s
b100 o
b100 i
b1001000000000 ?
b1001000000000 g
b1001000000000 l
b100101 V"
1&
12
#650000
0&
02
